16_빅데이터분석(R)
…
□ 문제2. 나이와 월급의 관계(incomebyage) - 몇 살 때 월급을 가장 많이 받을까?¶

In [15]:

welfare_13_age =
welfare_13_sex  %>%  mutate(age = 2015- birth +1)

welfare_13_age  %>% filter(!is.na(age))  %>% 
                    filter(!is.na(income))  %>% 
                    group_by(age)  %>% 
                    summarise(avg=mean(income))  %>%  print  %>% 
                    ggplot(aes(age, avg)) + geom_line()

# A tibble: 73 x 2
     age   avg
   <dbl> <dbl>
 1    16   90 
 2    17   75 
 3    18  114.
 4    19  145.
 5    20  158.
 6    21  162.
 7    22  179.
 8    23  193.
 9    24  197.
10    25  210.
# … with 63 more rows
…
□ 문제3. 나이 및 성별 월급 차이(incomebyagebysex) - 성별 월급 차이는 나이별로 다를까?¶

In [33]:

welfare_13_age  %>%  filter(!is.na(age))  %>% 
                      filter(!is.na(sex))  %>% 
                      filter(!is.na(income))    %>% 
                      select(sex, age, income)  %>% 
                      mutate(sex = factor(sex, levels = c('female','male')))  %>%  
                      group_by(sex, age)  %>% 
                      summarise(avg= mean(income))  %>% print  %>% 
                      ggplot(aes(age,avg , color = sex)) +geom_line()

# A tibble: 143 x 3
# Groups:   sex [2]
   sex      age   avg
   <fct>  <dbl> <dbl>
 1 female    16 140  
 2 female    17  76.7
 3 female    18 103. 
 4 female    19 139. 
 5 female    20 149. 
 6 female    21 163. 
 7 female    22 175. 
 8 female    23 191. 
 9 female    24 184. 
10 female    25 204. 
# … with 133 more rows
…
